Lunar and diel activity analysis
…
fit.diel<-postd.df %>% group_by(SpeciesName) %>% 
  summarize(day=mean(day),twilight=mean(twilight),night =mean(night), 
            category= most.common(category,keep.equals=TRUE) ) 

print(fit.diel)

# A tibble: 88 × 5
   SpeciesName                day twilight  night category             
   <fct>                    <dbl>    <dbl>  <dbl> <chr>                
 1 Atherurus africanus    0.0313     0.297 0.672  nocturnal            
 2 Atherurus macrourus    0.0118     0.276 0.712  nocturnal            
 3 Atilax paludinosus     0.307      0.474 0.219  cathemeral           
 4 Bdeogale crassicauda   0.00158    0.411 0.587  crepuscular_nocturnal
 5 Bdeogale nigripes      0.0517     0.191 0.758  nocturnal            
 6 Canis adustus          0.154      0.587 0.259  crepuscular_nocturnal
 7 Caracal aurata         0.310      0.407 0.283  cathemeral           
 8 Cephalophus callipygus 0.645      0.287 0.0679 diurnal_crepuscular  
 9 Cephalophus dorsalis   0.0627     0.374 0.563  crepuscular_nocturnal
10 Cephalophus harveyi    0.610      0.297 0.0933 diurnal_crepuscular  
# ℹ 78 more rows
…
postd.lunar<-NimbleOutputCoda1$sims.list$p.moon.dot
dimnames(postd.lunar)[[2]]<-fit$SpeciesName
dimnames(postd.lunar)[[3]]<-type.list.lunar
postd.lunar.df<-postd.lunar %>% melt() %>% tibble()
names(postd.lunar.df)<-c("iteration","SpeciesName","period","p.dot")
postd.lunar.df<-dcast(postd.lunar.df,iteration + SpeciesName ~ period, value.var = "p.dot",drop = FALSE)
postd.lunar.df$category<-apply(postd.lunar.df[,type.list.lunar],1,function(x)findTernaryRegion(x,x.names=type.list.lunar2,n.regions = "4B",name.center = "indifferent"))

fit.lunar<-postd.lunar.df %>% group_by(SpeciesName) %>% 
  summarize(fullmoon=mean(fullmoon),newmoon=mean(newmoon),transitional =mean(transitional), 
            category= most.common(category,keep.equals=TRUE)) 

print(fit.lunar)

# A tibble: 88 × 5
   SpeciesName            fullmoon newmoon transitional category   
   <fct>                     <dbl>   <dbl>        <dbl> <chr>      
 1 Atherurus africanus       0.106   0.566        0.327 lunarphobic
 2 Atherurus macrourus       0.195   0.511        0.294 indifferent
 3 Atilax paludinosus        0.288   0.361        0.351 indifferent
 4 Bdeogale crassicauda      0.321   0.328        0.352 indifferent
 5 Bdeogale nigripes         0.285   0.414        0.302 indifferent
 6 Canis adustus             0.507   0.204        0.290 indifferent
 7 Caracal aurata            0.298   0.385        0.317 indifferent
 8 Cephalophus callipygus    0.368   0.314        0.319 indifferent
 9 Cephalophus dorsalis      0.361   0.309        0.329 indifferent
10 Cephalophus harveyi       0.369   0.292        0.339 indifferent
# ℹ 78 more rows
…
